…
View(brfss\_smart2010)

``` r
formated_brfss_smart2010 = brfss_smart2010 %>%
  janitor::clean_names() %>%
  rename(., state = locationabbr, county = locationdesc) %>%
  filter(., topic == "Overall Health") %>%
  filter(., response == "Excellent" | response == "Very good" | response == "Good" | response == "Fair" | response == "Poor") %>%
  mutate(., response = as.factor(.$response)) %>%
  arrange(., factor(response, levels = c("Excellent", "Very good", "Good", "Fair", "Poor")))

formated_brfss_smart2010
```

    ## # A tibble: 10,625 x 23
    ##     year state county class topic question response sample_size data_value
    ##    <int> <chr> <chr>  <chr> <chr> <chr>    <fct>          <int>      <dbl>
    ##  1  2010 AL    AL - ~ Heal~ Over~ How is ~ Excelle~          94       18.9
    ##  2  2010 AL    AL - ~ Heal~ Over~ How is ~ Excelle~          91       15.6
    ##  3  2010 AL    AL - ~ Heal~ Over~ How is ~ Excelle~          58       20.8
    ##  4  2010 AZ    AZ - ~ Heal~ Over~ How is ~ Excelle~         269       27.3
    ##  5  2010 AZ    AZ - ~ Heal~ Over~ How is ~ Excelle~          68       17  
    ##  6  2010 AZ    AZ - ~ Heal~ Over~ How is ~ Excelle~         133       20.5
    ##  7  2010 AR    AR - ~ Heal~ Over~ How is ~ Excelle~          67       23.1
    ##  8  2010 AR    AR - ~ Heal~ Over~ How is ~ Excelle~         100       29  
    ##  9  2010 AR    AR - ~ Heal~ Over~ How is ~ Excelle~          47       24.1
    ## 10  2010 CA    CA - ~ Heal~ Over~ How is ~ Excelle~         167       24  
    ## # ... with 10,615 more rows, and 14 more variables:
    ## #   confidence_limit_low <dbl>, confidence_limit_high <dbl>,
    ## #   display_order <int>, data_value_unit <chr>, data_value_type <chr>,
    ## #   data_value_footnote_symbol <chr>, data_value_footnote <chr>,
    ## #   data_source <chr>, class_id <chr>, topic_id <chr>, location_id <chr>,
    ## #   question_id <chr>, respid <chr>, geo_location <chr>
…
View(formated\_brfss\_smart2010\_2002)

``` r
formated_brfss_smart2010_2002_to_2010 = formated_brfss_smart2010 %>%
  select(., year, state, county) %>%
  unique(.) %>%
  group_by(year, state) %>%
  summarize(n_location = n())

formated_brfss_smart2010_2002_to_2010
```

    ## # A tibble: 443 x 3
    ## # Groups:   year [?]
    ##     year state n_location
    ##    <int> <chr>      <int>
    ##  1  2002 AK             1
    ##  2  2002 AL             1
    ##  3  2002 AR             1
    ##  4  2002 AZ             2
    ##  5  2002 CA             1
    ##  6  2002 CO             4
    ##  7  2002 CT             7
    ##  8  2002 DC             1
    ##  9  2002 DE             3
    ## 10  2002 FL             7
    ## # ... with 433 more rows
…
``` r
response_average_prop = formated_brfss_smart2010 %>%
  select(., year, state, county, response, data_value) %>%
  group_by(year, state, response) %>%
  summarise(average_prop = mean(data_value))

response_average_prop[order(response_average_prop$response),]
```

    ## # A tibble: 2,215 x 4
    ## # Groups:   year, state [443]
    ##     year state response  average_prop
    ##    <int> <chr> <fct>            <dbl>
    ##  1  2002 AK    Excellent         27.9
    ##  2  2002 AL    Excellent         18.5
    ##  3  2002 AR    Excellent         24.1
    ##  4  2002 AZ    Excellent         24.1
    ##  5  2002 CA    Excellent         22.7
    ##  6  2002 CO    Excellent         23.1
    ##  7  2002 CT    Excellent         29.1
    ##  8  2002 DC    Excellent         29.3
    ##  9  2002 DE    Excellent         20.9
    ## 10  2002 FL    Excellent         25.7
    ## # ... with 2,205 more rows
…
